<?xml version="1.0" standalone="no"?>
<!DOCTYPE svg PUBLIC "-//W3C//DTD SVG 20010904//EN"
 "http://www.w3.org/TR/2001/REC-SVG-20010904/DTD/svg10.dtd">
<svg version="1.0" xmlns="http://www.w3.org/2000/svg"
 width="700.000000pt" height="700.000000pt" viewBox="0 0 700.000000 700.000000"
 preserveAspectRatio="xMidYMid meet">
<metadata>
Created by potrace 1.14, written by Peter Selinger 2001-2017
</metadata>
<g transform="translate(0.000000,700.000000) scale(0.100000,-0.100000)"
fill="#000000" stroke="none">
<path d="M1587 5763 c-4 -3 -7 -93 -7 -198 l0 -192 1013 -6 c556 -4 1410 -8
1897 -9 l885 -3 0 205 0 205 -1891 3 c-1040 1 -1894 -1 -1897 -5z"/>
<path d="M1863 5203 c-10 -3 -13 -72 -13 -295 l0 -291 122 6 c66 4 201 7 300
7 l178 0 0 290 0 290 -287 -1 c-159 0 -294 -3 -300 -6z"/>
<path d="M800 5191 l-95 -6 -8 -55 c-12 -79 -2 -499 13 -514 12 -12 556 -13
569 -1 9 10 7 562 -2 572 -10 10 -343 13 -477 4z"/>
<path d="M2990 4910 l0 -290 495 0 495 0 0 290 0 290 -495 0 -495 0 0 -290z"/>
<path d="M4477 5183 c-4 -3 -7 -136 -7 -295 l0 -288 300 0 300 0 -2 293 -3
292 -291 3 c-160 1 -293 -1 -297 -5z"/>
<path d="M5743 5183 l-31 -4 -8 -97 c-7 -99 2 -439 12 -467 5 -13 44 -15 285
-15 257 0 280 1 287 18 9 22 9 532 0 555 -7 16 -28 17 -260 15 -139 0 -267 -3
-285 -5z"/>
<path d="M4480 3985 l0 -285 283 0 284 0 6 152 c4 83 7 208 7 278 l0 127 -37
7 c-21 3 -152 6 -290 6 l-253 0 0 -285z"/>
<path d="M1867 4253 c-4 -3 -7 -129 -7 -279 0 -260 1 -274 19 -284 12 -6 121
-10 285 -10 252 0 266 1 276 19 11 21 14 459 4 524 l-7 37 -282 0 c-155 0
-285 -3 -288 -7z"/>
<path d="M2990 3975 l0 -285 495 0 495 0 0 285 0 285 -495 0 -495 0 0 -285z"/>
<path d="M701 4231 c-12 -8 -13 -52 -8 -277 4 -170 10 -271 17 -278 13 -13
534 -16 547 -3 4 5 9 131 11 281 l3 273 -62 7 c-93 9 -492 7 -508 -3z"/>
<path d="M5775 4231 l-70 -6 3 -274 c1 -151 5 -277 8 -280 10 -11 257 -19 406
-13 138 5 147 6 152 26 3 12 6 137 6 278 l0 258 -22 4 c-39 8 -409 13 -483 7z"/>
<path d="M1874 3296 c-9 -24 -10 -553 -1 -563 11 -10 553 -10 564 0 11 11 10
553 0 564 -5 4 -132 9 -283 11 -240 3 -275 2 -280 -12z"/>
<path d="M2980 3010 l0 -300 500 0 500 0 0 300 0 300 -500 0 -500 0 0 -300z"/>
<path d="M4506 3284 c-3 -9 -6 -136 -6 -284 l0 -267 139 -5 c76 -2 204 -2 284
0 138 4 146 6 151 26 8 29 7 242 -1 409 l-6 137 -277 0 c-244 0 -279 -2 -284
-16z"/>
<path d="M720 3283 c-19 -3 -38 -10 -42 -16 -11 -18 -9 -519 2 -537 11 -18
198 -27 427 -21 l142 3 7 47 c12 77 -4 513 -18 523 -13 8 -452 8 -518 1z"/>
<path d="M5813 3281 c-61 -3 -115 -10 -120 -14 -11 -11 -11 -543 0 -554 5 -4
132 -9 282 -11 l273 -4 13 23 c15 30 8 534 -9 551 -13 13 -276 19 -439 9z"/>
<path d="M2635 2390 c-52 -21 -50 25 -53 -947 l-2 -903 -813 0 c-446 0 -937
-3 -1090 -7 l-277 -6 0 -144 c0 -140 1 -145 25 -169 l24 -24 3045 2 c2977 3
3044 3 3065 22 20 18 21 29 21 184 l0 165 -1125 -8 -1125 -7 0 897 0 897 -29
29 -29 29 -809 -1 c-444 0 -817 -4 -828 -9z m1456 -755 c5 -4 9 -221 9 -554
l0 -548 -122 -7 c-67 -4 -352 -4 -635 0 l-513 7 0 553 0 553 48 4 c67 7 1201
-1 1213 -8z"/>
<path d="M2947 1533 c-4 -3 -7 -210 -7 -460 l0 -453 235 0 235 0 0 460 0 460
-228 0 c-126 0 -232 -3 -235 -7z"/>
<path d="M3530 1080 l0 -460 235 0 235 0 0 460 0 460 -235 0 -235 0 0 -460z"/>
<path d="M4673 2383 l-163 -3 0 -290 0 -290 274 0 c167 0 277 4 281 10 10 17
17 544 7 558 -11 16 -148 21 -399 15z"/>
<path d="M1863 2374 c-10 -4 -13 -69 -13 -272 0 -147 3 -277 6 -290 l6 -22
272 2 271 3 8 284 c4 156 5 286 2 289 -7 7 -537 13 -552 6z"/>
<path d="M700 2361 c-12 -8 -14 -57 -15 -298 l0 -288 284 -3 c171 -1 288 1
294 7 6 6 12 133 15 289 5 267 4 279 -14 286 -31 12 -547 19 -564 7z"/>
<path d="M5705 2350 c-4 -7 -10 -137 -13 -290 -4 -230 -2 -279 9 -286 8 -5
133 -10 279 -12 218 -3 268 -1 284 11 18 13 20 32 24 286 3 202 2 275 -7 284
-18 18 -566 24 -576 7z"/>
<path d="M695 1454 c-17 -17 -17 -69 1 -452 l6 -122 282 2 281 3 3 293 2 292
-279 0 c-245 0 -282 -2 -296 -16z"/>
<path d="M1860 1171 l0 -291 268 2 267 3 7 279 c4 154 6 281 5 282 -1 1 -125
5 -274 9 l-273 7 0 -291z"/>
<path d="M5706 1447 c-18 -13 -19 -25 -12 -238 3 -123 9 -250 13 -281 l6 -58
288 0 289 0 0 285 c0 220 -3 287 -12 290 -7 2 -134 6 -283 10 -223 5 -273 4
-289 -8z"/>
<path d="M4611 1443 l-94 -4 7 -91 c3 -50 6 -178 6 -285 l0 -193 273 2 272 3
3 281 2 281 -61 7 c-60 6 -213 5 -408 -1z"/>
</g>
</svg>
